<?xml version="1.0" encoding="UTF-8"?>
<CustomTab xmlns="http://soap.sforce.com/2006/04/metadata">
    <description>Merge Accounts. Previous step to SalesForce Merge.</description>
    <label>Merge Accounts</label>
    <motif>Custom57: Building Block</motif>
    <page>c2g__codamergeaccounts</page>
</CustomTab>
