<?xml version="1.0" encoding="UTF-8"?>
<CustomTab xmlns="http://soap.sforce.com/2006/04/metadata">
    <label>zDeprecated Export Action Views</label>
    <motif>Custom50: Big top</motif>
    <page>c2g__actionviewexport</page>
</CustomTab>
