<?xml version="1.0" encoding="UTF-8"?>
<CustomTab xmlns="http://soap.sforce.com/2006/04/metadata">
    <description>Synchronize secondary balances, rebuild balances from transactions and update balances for merged accounts.</description>
    <label>Balance Update</label>
    <motif>Custom44: Hammer</motif>
    <page>c2g__balanceupdate</page>
</CustomTab>
