<?xml version="1.0" encoding="UTF-8"?>
<CustomTab xmlns="http://soap.sforce.com/2006/04/metadata">
    <label>zDeprecated Income Sch Staging Journals</label>
    <motif>Custom90: Scales</motif>
    <page>c2g__codaincschedulestagingjnlview</page>
</CustomTab>
