<?xml version="1.0" encoding="UTF-8"?>
<CustomTab xmlns="http://soap.sforce.com/2006/04/metadata">
    <label>Configuration Manager</label>
    <motif>Custom63: Chip</motif>
    <page>clcommon__configManager</page>
</CustomTab>
