<?xml version="1.0" encoding="UTF-8"?>
<CustomTab xmlns="http://soap.sforce.com/2006/04/metadata">
    <customObject>true</customObject>
    <description>FairWarning Alerts tab</description>
    <icon>fairwarn__Common/fairwarn__Alert_Icon_32x32.gif</icon>
    <motif>Custom172: TV Widescreen</motif>
</CustomTab>
