<?xml version="1.0" encoding="UTF-8"?>
<CustomTab xmlns="http://soap.sforce.com/2006/04/metadata">
    <label>FFA Batch Manager</label>
    <motif>Custom1: Heart</motif>
    <page>ffaBatchManager</page>
</CustomTab>
