<?xml version="1.0" encoding="UTF-8"?>
<CustomTab xmlns="http://soap.sforce.com/2006/04/metadata">
    <description>Tab to be used by Consulting Tool Manager for generation of activation code</description>
    <label>Consulting Tool Generate Activation Code</label>
    <motif>Custom64: Compass</motif>
    <page>ffct__generateactivationcode</page>
</CustomTab>
