<?xml version="1.0" encoding="UTF-8"?>
<CustomTab xmlns="http://soap.sforce.com/2006/04/metadata">
    <label>Export Action Views</label>
    <motif>Custom242: TV Widescreen</motif>
    <page>ffr__actionviewexport</page>
</CustomTab>
