<?xml version="1.0" encoding="UTF-8"?>
<CustomTab xmlns="http://soap.sforce.com/2006/04/metadata">
    <description>Top Billing Launchpad tab</description>
    <label>Billing Launchpad</label>
    <motif>Custom11: Star</motif>
    <page>ffxp__ffdc5_launchpad_billing</page>
</CustomTab>
