<?xml version="1.0" encoding="UTF-8"?>
<CustomTab xmlns="http://soap.sforce.com/2006/04/metadata">
    <customObject>true</customObject>
    <description>inContact Agent Console configuration page tab</description>
    <icon>icAgentConsole__inContact/icAgentConsole__inContact_logo_png.png</icon>
    <motif>Custom214: TV Widescreen</motif>
</CustomTab>
