<?xml version="1.0" encoding="UTF-8"?>
<CustomTab xmlns="http://soap.sforce.com/2006/04/metadata">
    <label>Deal Automatic Assignment</label>
    <motif>Custom18: Form</motif>
    <page>DealAutomaticTimeFrameLocation</page>
</CustomTab>
