<?xml version="1.0" encoding="UTF-8"?>
<CustomTab xmlns="http://soap.sforce.com/2006/04/metadata">
    <label>Buyback Process</label>
    <motif>Custom57: Building Block</motif>
    <page>loan__buybackProcess</page>
</CustomTab>
