<?xml version="1.0" encoding="UTF-8"?>
<CustomTab xmlns="http://soap.sforce.com/2006/04/metadata">
    <label>Drawloop Admin</label>
    <motif>Custom13: Box</motif>
    <page>Loop__aboutloop</page>
</CustomTab>
